(footprint "Connector_HTST-105-01-S-DV" (version 20211014) (generator pcbnew)
  (layer "F.Cu")
  (tedit 59FED5CC)
  (descr "surface-mounted straight pin header, 2x05, 2.54mm pitch, double rows, shrouded (https://www.samtec.com/de/products/htst-105-01-s-dv-a)")
  (tags "SMT Samtec shrouded")
  (attr smd)
  (fp_text reference "REF**" (at -2.8 -11.05) (layer "F.SilkS")
    (effects (font (size 1 1) (thickness 0.15)))
    (tstamp d7160006-58f1-431c-b83d-efd117c02ce8)
  )
  (fp_text value "HTST-105-01-S-DV" (at 1.55 -0.05 90) (layer "F.Fab")
    (effects (font (size 1 1) (thickness 0.15)))
    (tstamp b9adfb29-7016-4f7f-a550-c7f7de932ae4)
  )
  (fp_text user "${REFERENCE}" (at 0 0 90) (layer "F.Fab")
    (effects (font (size 1 1) (thickness 0.15)))
    (tstamp 3ef6c644-94cd-4521-9d6b-39ac086bc84f)
  )
  (fp_line (start 4.7 0.76) (end 4.7 1.78) (layer "F.SilkS") (width 0.12) (tstamp 24f1f79f-daf6-4475-9245-38b4856e3ca6))
  (fp_line (start -4.7 3.3) (end -4.7 4.32) (layer "F.SilkS") (width 0.12) (tstamp 30d09a04-b453-495a-9094-89699a5c5da2))
  (fp_line (start -4.7 5.84) (end -4.7 10.3) (layer "F.SilkS") (width 0.12) (tstamp 4e87608f-bc74-475d-8d14-9ccb709da45c))
  (fp_line (start -4.7 0.76) (end -4.7 1.78) (layer "F.SilkS") (width 0.12) (tstamp 6704417a-8598-49d4-882f-d0cc2a905f40))
  (fp_line (start 4.7 -1.78) (end 4.7 -0.76) (layer "F.SilkS") (width 0.12) (tstamp 69e53d81-d7e3-4f12-af85-4ac86a309893))
  (fp_line (start -4.7 10.3) (end 4.7 10.3) (layer "F.SilkS") (width 0.12) (tstamp 6c73c836-6659-4a68-8c40-b532d6d54092))
  (fp_line (start 4.7 5.84) (end 4.7 10.3) (layer "F.SilkS") (width 0.12) (tstamp 83199b74-90fa-44fb-bb42-79d884006c35))
  (fp_line (start -4.7 -1.78) (end -4.7 -0.76) (layer "F.SilkS") (width 0.12) (tstamp 9f42d58e-90e1-4c12-8c94-9a8a7345dfaa))
  (fp_line (start -4.7 -10.3) (end 4.7 -10.3) (layer "F.SilkS") (width 0.12) (tstamp a6306f0d-fc69-4aad-b687-6480337b6379))
  (fp_line (start -4.7 -4.32) (end -4.7 -3.3) (layer "F.SilkS") (width 0.12) (tstamp b09482bb-2523-47ba-a8af-0b207c5bde2b))
  (fp_line (start -4.7 -5.84) (end -5.75 -5.84) (layer "F.SilkS") (width 0.12) (tstamp b882554c-74d3-47ed-aa5e-bff025add75c))
  (fp_line (start 4.7 -10.3) (end 4.7 -5.84) (layer "F.SilkS") (width 0.12) (tstamp c7e9da14-786d-4dcd-b3f7-fd5570a2c1a0))
  (fp_line (start 4.7 -4.32) (end 4.7 -3.3) (layer "F.SilkS") (width 0.12) (tstamp d029b393-e05c-40d6-ac19-85f30a3935de))
  (fp_line (start 4.7 3.3) (end 4.7 4.32) (layer "F.SilkS") (width 0.12) (tstamp d3a17a78-0d33-4663-965a-3eddbc0ea58b))
  (fp_line (start -4.7 -10.3) (end -4.7 -5.84) (layer "F.SilkS") (width 0.12) (tstamp d7f06dfa-73f2-4cb6-976b-2cd41b90d693))
  (fp_line (start 5.9 -10.5) (end -5.9 -10.5) (layer "F.CrtYd") (width 0.05) (tstamp 0faffc54-13c1-4a76-b33a-108b9ad65eb6))
  (fp_line (start 5.9 10.5) (end -5.9 10.5) (layer "F.CrtYd") (width 0.05) (tstamp 548b70f9-8a40-41fa-8b4c-4a7e34d04793))
  (fp_line (start -5.9 -10.5) (end -5.9 10.5) (layer "F.CrtYd") (width 0.05) (tstamp bd4e5707-d4ef-4bce-aac7-2b78774f66a9))
  (fp_line (start 5.9 10.5) (end 5.9 -10.5) (layer "F.CrtYd") (width 0.05) (tstamp fd038e47-387e-41dd-94df-71523d467d65))
  (fp_line (start -1.7 -10.16) (end 4.635 -10.16) (layer "F.Fab") (width 0.1) (tstamp 18ab4cee-227c-49cc-b074-4192b4da98df))
  (fp_line (start 4.635 10.16) (end -4.635 10.16) (layer "F.Fab") (width 0.1) (tstamp ac4292ca-986e-4829-a30c-32b665529ca5))
  (fp_line (start 4.635 -10.16) (end 4.635 10.16) (layer "F.Fab") (width 0.1) (tstamp ad6059ff-6e40-435b-9375-a77a28227064))
  (fp_line (start -1.7 -10.16) (end -4.635 -7.225) (layer "F.Fab") (width 0.1) (tstamp c6651254-9b2f-4c93-8315-87631ed77bca))
  (fp_line (start -4.635 10.16) (end -4.635 -7.225) (layer "F.Fab") (width 0.1) (tstamp f4c270e4-d6d1-497f-8a55-bd02f6b3883f))
  (pad "1" smd roundrect (at -3.2 -5.08) (size 5.08 1.27) (layers "F.Cu" "F.Paste" "F.Mask") (roundrect_rratio 0.25) (tstamp 7b2b0579-42ea-434d-95fd-a5927aab3a79))
  (pad "2" smd roundrect (at 3.2 -5.08) (size 5.08 1.27) (layers "F.Cu" "F.Paste" "F.Mask") (roundrect_rratio 0.25) (tstamp 2a58c413-5a10-4d5d-8bc3-3d1b322c2a76))
  (pad "3" smd roundrect (at -3.2 -2.54) (size 5.08 1.27) (layers "F.Cu" "F.Paste" "F.Mask") (roundrect_rratio 0.25) (tstamp 8e61a57c-d667-43e5-9df6-6dd206c4f5a8))
  (pad "4" smd roundrect (at 3.2 -2.54) (size 5.08 1.27) (layers "F.Cu" "F.Paste" "F.Mask") (roundrect_rratio 0.25) (tstamp aaee8f32-2776-4ace-b926-8d5091b770d1))
  (pad "5" smd roundrect (at -3.2 0) (size 5.08 1.27) (layers "F.Cu" "F.Paste" "F.Mask") (roundrect_rratio 0.25) (tstamp e661a4c9-b941-4b50-9c95-117a288d9f40))
  (pad "6" smd roundrect (at 3.2 0) (size 5.08 1.27) (layers "F.Cu" "F.Paste" "F.Mask") (roundrect_rratio 0.25) (tstamp 56e19a29-69c1-4541-9500-3cc35c529f30))
  (pad "7" smd roundrect (at -3.2 2.54) (size 5.08 1.27) (layers "F.Cu" "F.Paste" "F.Mask") (roundrect_rratio 0.25) (tstamp 47050145-a25f-42bf-940c-59629fefc902))
  (pad "8" smd roundrect (at 3.2 2.54) (size 5.08 1.27) (layers "F.Cu" "F.Paste" "F.Mask") (roundrect_rratio 0.25) (tstamp ba056c84-3cb5-4b57-909f-7ca7914ed662))
  (pad "9" smd roundrect (at -3.2 5.08) (size 5.08 1.27) (layers "F.Cu" "F.Paste" "F.Mask") (roundrect_rratio 0.25) (tstamp 4a4c4547-f13e-4d5d-b2b2-2833b4c3ea79))
  (pad "10" smd roundrect (at 3.2 5.08) (size 5.08 1.27) (layers "F.Cu" "F.Paste" "F.Mask") (roundrect_rratio 0.25) (tstamp feae36ea-1bb7-4993-9b1a-35324777f449))
  (model "${PHYSIK3A_3DMODEL_DIR}/SAMTEC-HTST-105-01-X-DV.step"
    (offset (xyz 0 0 1.27))
    (scale (xyz 1 1 1))
    (rotate (xyz -90 0 90))
  )
)
