(footprint "Connector_Binder_0903160005_Vertical" (version 20211014) (generator pcbnew)
  (layer "F.Cu")
  (tedit 0)
  (descr "M16 IP40 Flanschdose, Polzahl: 5 (https://www.binder-connector.com/de/produkte/miniatur-steckverbinder/m-16-steckverbinder-ip-40/flanschdose-loeten-2-8-pol#0903160005)")
  (attr through_hole)
  (fp_text reference "REF**" (at 0 -0.5 unlocked) (layer "F.SilkS")
    (effects (font (size 1 1) (thickness 0.15)))
    (tstamp 5d508af6-14b9-46a3-8411-6443352f2cde)
  )
  (fp_text value "Binder_0903160005" (at 0 1 unlocked) (layer "F.Fab")
    (effects (font (size 1 1) (thickness 0.15)))
    (tstamp 49c5d614-b560-4322-81c6-174565cdd550)
  )
  (fp_text user "${REFERENCE}" (at 0 2.5 unlocked) (layer "F.Fab")
    (effects (font (size 1 1) (thickness 0.15)))
    (tstamp 4d902d29-af96-42d0-8652-883c5f5387d0)
  )
  (fp_circle (center 0 0) (end 0 -9.1) (layer "F.SilkS") (width 0.12) (fill none) (tstamp d31d203f-50b0-4839-a3ae-634651187ad3))
  (fp_circle (center 0 0) (end 3.5 0) (layer "Dwgs.User") (width 0.12) (fill none) (tstamp 4f48d453-5697-4a2a-a775-0820f1b7c5e4))
  (fp_circle (center 0 0) (end 8 0) (layer "F.Fab") (width 0.1) (fill none) (tstamp 2d047ee0-7d63-40b1-b30e-0436af11baee))
  (fp_circle (center 0 0) (end 9 0) (layer "F.Fab") (width 0.1) (fill none) (tstamp fe4518d8-3ebf-4f22-a661-b929ca28cc6b))
  (pad "1" thru_hole circle (at -3.031089 1.75) (size 3.2 3.2) (drill 2.1) (layers *.Cu *.Mask) (tstamp d947fc3f-7d28-440c-8379-dda4e66a7791))
  (pad "2" thru_hole circle (at -3.031089 -1.75) (size 3.2 3.2) (drill 2.1) (layers *.Cu *.Mask) (tstamp a13341db-2e5e-44a7-b704-537893ac6698))
  (pad "3" thru_hole circle (at 0 -3.5) (size 3.2 3.2) (drill 2.1) (layers *.Cu *.Mask) (tstamp 70c3c008-742a-4153-b52a-d818b5ef79be))
  (pad "4" thru_hole circle (at 3.031089 -1.75) (size 3.2 3.2) (drill 2.1) (layers *.Cu *.Mask) (tstamp 3dee9269-ed01-4dd7-8a8c-8a808aa61718))
  (pad "5" thru_hole circle (at 3.031089 1.75) (size 3.2 3.2) (drill 2.1) (layers *.Cu *.Mask) (tstamp 93509f3d-e908-4b50-9d9a-7ed4e79a6c9e))
  (model "${PHYSIK3A_3DMODEL_DIR}//Binder_0903160005.stp"
    (offset (xyz 0 0 14))
    (scale (xyz 1 1 1))
    (rotate (xyz 90 0 0))
  )
)
