(footprint "Molex_Micro-Fit_3.0_43045-0610_2x03-1MP_P3.00mm_Horizontal" (version 20221018) (generator pcbnew)
  (layer "F.Cu")
  (descr "Molex Micro-Fit 3.0 Connector System, 43045-0610 (compatible alternatives: 43045-0611, 43045-0609), 3 Pins per row (http://www.molex.com/pdm_docs/sd/430450210_sd.pdf), generated with kicad-footprint-generator")
  (tags "connector Molex Micro-Fit_3.0 top entry")
  (property "Sheetfile" "back_bone.kicad_sch")
  (property "Sheetname" "")
  (property "ki_description" "Generic connectable mounting pin connector, single row, 01x06, script generated (kicad-library-utils/schlib/autogen/connector/)")
  (property "ki_keywords" "connector")
  (attr smd)
  (fp_text reference "J10" (at 7.4 -9.9 90) (layer "F.SilkS")
      (effects (font (size 0.8 0.8) (thickness 0.12)))
    (tstamp 975a5d56-4762-4249-9503-12465d4f1047)
  )
  (fp_text value "Micro-Fit 01x06 SMD" (at 0 4.98) (layer "F.Fab")
      (effects (font (size 1 1) (thickness 0.15)))
    (tstamp c3009c0b-dfdc-46d9-a10e-0f1a682cbc02)
  )
  (fp_text user "${REFERENCE}" (at 0 -11.68) (layer "F.Fab")
      (effects (font (size 1 1) (thickness 0.15)))
    (tstamp 11edd1f5-7dde-4ea9-b39a-56d6e3bd479e)
  )
  (fp_line (start -6.435 -10.495) (end -6.435 -8.98)
    (stroke (width 0.12) (type solid)) (layer "F.SilkS") (tstamp 47e87571-bcfb-4c2a-af84-e799db4308ff))
  (fp_line (start -6.435 -6.59) (end -6.435 -2.365)
    (stroke (width 0.12) (type solid)) (layer "F.SilkS") (tstamp afe0e6e8-e372-4521-bbb2-e4a98a7ba7f3))
  (fp_line (start -6.435 -2.365) (end -4.005 -2.365)
    (stroke (width 0.12) (type solid)) (layer "F.SilkS") (tstamp d518b5da-b26b-4d7f-a989-a896bdb1d46e))
  (fp_line (start -5.435 -12.495) (end -6.435 -10.495)
    (stroke (width 0.12) (type solid)) (layer "F.SilkS") (tstamp 8d3a1f35-51fb-4bf9-9ac7-df464fdb78b1))
  (fp_line (start -4.005 -2.365) (end -4.005 -0.905)
    (stroke (width 0.12) (type solid)) (layer "F.SilkS") (tstamp 359bed9b-7e39-4d05-8713-0547e3130f84))
  (fp_line (start 0 -12.495) (end -5.435 -12.495)
    (stroke (width 0.12) (type solid)) (layer "F.SilkS") (tstamp 79bf95ea-27e9-46cc-9c75-69f23ca8461f))
  (fp_line (start 0 -12.495) (end 5.435 -12.495)
    (stroke (width 0.12) (type solid)) (layer "F.SilkS") (tstamp f172761e-44c0-4618-9346-09b28f98109e))
  (fp_line (start 5.435 -12.495) (end 6.435 -10.495)
    (stroke (width 0.12) (type solid)) (layer "F.SilkS") (tstamp 1a702833-cde8-41ec-86f0-9899d20e81b9))
  (fp_line (start 6.435 -10.495) (end 6.435 -8.98)
    (stroke (width 0.12) (type solid)) (layer "F.SilkS") (tstamp 47181ea5-105f-4172-a0e7-9ed421aafbf6))
  (fp_line (start 6.435 -6.59) (end 6.435 -2.365)
    (stroke (width 0.12) (type solid)) (layer "F.SilkS") (tstamp ee1a9301-a5ba-4086-bac6-6daa8e7e2531))
  (fp_line (start 6.435 -2.365) (end 4.005 -2.365)
    (stroke (width 0.12) (type solid)) (layer "F.SilkS") (tstamp 35619d5d-dfad-4821-933e-51696cdeecbe))
  (fp_line (start -9.1 -9.11) (end -9.1 -6.46)
    (stroke (width 0.05) (type solid)) (layer "F.CrtYd") (tstamp b43416bc-fb10-4429-922d-14bfc89505bd))
  (fp_line (start -9.1 -6.46) (end -6.82 -6.46)
    (stroke (width 0.05) (type solid)) (layer "F.CrtYd") (tstamp 2f790a73-4b3f-43c6-ab7b-54e3f44cf563))
  (fp_line (start -6.82 -10.88) (end -6.82 -9.11)
    (stroke (width 0.05) (type solid)) (layer "F.CrtYd") (tstamp 33f3140f-d876-4472-b918-f4850c78738c))
  (fp_line (start -6.82 -9.11) (end -9.1 -9.11)
    (stroke (width 0.05) (type solid)) (layer "F.CrtYd") (tstamp f48cac70-c9e9-4402-8615-1b2eb7e54d0a))
  (fp_line (start -6.82 -6.46) (end -6.82 -1.97)
    (stroke (width 0.05) (type solid)) (layer "F.CrtYd") (tstamp 4b66f9dc-193b-4d78-9aab-299c24028436))
  (fp_line (start -6.82 -1.97) (end -4.13 -1.97)
    (stroke (width 0.05) (type solid)) (layer "F.CrtYd") (tstamp d5dd27d1-3647-4570-a6f4-b596f0e2fef2))
  (fp_line (start -5.82 -12.88) (end -6.82 -10.88)
    (stroke (width 0.05) (type solid)) (layer "F.CrtYd") (tstamp 9072c721-a682-4529-98e5-d8a0c262c6ac))
  (fp_line (start -4.13 -1.97) (end -4.13 4.28)
    (stroke (width 0.05) (type solid)) (layer "F.CrtYd") (tstamp 5eb48033-fcea-46e0-84b4-31cb7aed0b2d))
  (fp_line (start -4.13 4.28) (end 0 4.28)
    (stroke (width 0.05) (type solid)) (layer "F.CrtYd") (tstamp 500f69f1-d146-4121-a2fe-bc82363a67d0))
  (fp_line (start 0 -12.88) (end -5.82 -12.88)
    (stroke (width 0.05) (type solid)) (layer "F.CrtYd") (tstamp bde4a693-fd27-4867-8051-09eb31343866))
  (fp_line (start 0 -12.88) (end 5.82 -12.88)
    (stroke (width 0.05) (type solid)) (layer "F.CrtYd") (tstamp 42af52e1-bdc6-439b-9fa3-4a4f14315670))
  (fp_line (start 4.13 -1.97) (end 4.13 4.28)
    (stroke (width 0.05) (type solid)) (layer "F.CrtYd") (tstamp a9c2a6fb-a791-42c1-bcad-518c86f8df2e))
  (fp_line (start 4.13 4.28) (end 0 4.28)
    (stroke (width 0.05) (type solid)) (layer "F.CrtYd") (tstamp 494d6fdc-012b-404a-8984-e44eabc78937))
  (fp_line (start 5.82 -12.88) (end 6.82 -10.88)
    (stroke (width 0.05) (type solid)) (layer "F.CrtYd") (tstamp 54d0ce7b-d9b2-44c7-a85b-73c158c2c508))
  (fp_line (start 6.82 -10.88) (end 6.82 -9.11)
    (stroke (width 0.05) (type solid)) (layer "F.CrtYd") (tstamp 618f97ee-cb5a-4c3a-9126-1fed02b16123))
  (fp_line (start 6.82 -9.11) (end 9.1 -9.11)
    (stroke (width 0.05) (type solid)) (layer "F.CrtYd") (tstamp 0e5731db-0817-44bf-aa90-be0222a20068))
  (fp_line (start 6.82 -6.46) (end 6.82 -1.97)
    (stroke (width 0.05) (type solid)) (layer "F.CrtYd") (tstamp d0cff498-17ed-4057-bb05-4da58bc9a9ea))
  (fp_line (start 6.82 -1.97) (end 4.13 -1.97)
    (stroke (width 0.05) (type solid)) (layer "F.CrtYd") (tstamp 5a001d81-7659-45c1-8728-f3f954498131))
  (fp_line (start 9.1 -9.11) (end 9.1 -6.46)
    (stroke (width 0.05) (type solid)) (layer "F.CrtYd") (tstamp 7da9f3a0-fcab-481e-9021-b45be703f9cd))
  (fp_line (start 9.1 -6.46) (end 6.82 -6.46)
    (stroke (width 0.05) (type solid)) (layer "F.CrtYd") (tstamp 0e0092d0-e8a7-4f45-8ce3-6fcb1d568398))
  (fp_line (start -6.325 -10.385) (end -6.325 -8.61)
    (stroke (width 0.1) (type solid)) (layer "F.Fab") (tstamp 6e72ef06-ae55-404f-9a5b-86e0a68437fe))
  (fp_line (start -6.325 -8.61) (end -6.325 -2.475)
    (stroke (width 0.1) (type solid)) (layer "F.Fab") (tstamp 12492490-fd07-485a-8a35-eeae2e6f8dc1))
  (fp_line (start -6.325 -2.475) (end -4 -2.475)
    (stroke (width 0.1) (type solid)) (layer "F.Fab") (tstamp 82186034-4f0a-4d9e-91b2-3ba13f8a3744))
  (fp_line (start -5.325 -12.385) (end -6.325 -10.385)
    (stroke (width 0.1) (type solid)) (layer "F.Fab") (tstamp 23cb912d-536a-44d1-a48d-a181a35287ee))
  (fp_line (start -4 -2.475) (end -3 -3.475)
    (stroke (width 0.1) (type solid)) (layer "F.Fab") (tstamp eca8503b-8296-4c2c-bc67-232c80b0fdc9))
  (fp_line (start -3 -3.475) (end -2 -2.475)
    (stroke (width 0.1) (type solid)) (layer "F.Fab") (tstamp c54678d9-896c-4a45-9422-f580f9db684b))
  (fp_line (start -2 -2.475) (end 0 -2.475)
    (stroke (width 0.1) (type solid)) (layer "F.Fab") (tstamp e101ce59-197c-49b4-86e6-780387c4468d))
  (fp_line (start 0 -12.385) (end -5.325 -12.385)
    (stroke (width 0.1) (type solid)) (layer "F.Fab") (tstamp 6ac3b0e6-8ded-4d07-99a3-8cbcc5c1ceac))
  (fp_line (start 0 -12.385) (end 5.325 -12.385)
    (stroke (width 0.1) (type solid)) (layer "F.Fab") (tstamp da3dfa0f-131a-47ba-8fe0-7f785f32bb9f))
  (fp_line (start 3.635 -2.475) (end 0 -2.475)
    (stroke (width 0.1) (type solid)) (layer "F.Fab") (tstamp e04358fb-77ca-47f3-8be7-d2f697533e2a))
  (fp_line (start 5.325 -12.385) (end 6.325 -10.385)
    (stroke (width 0.1) (type solid)) (layer "F.Fab") (tstamp 6d691a91-ba30-41a1-9d88-cf48dd51f8b7))
  (fp_line (start 6.325 -10.385) (end 6.325 -8.61)
    (stroke (width 0.1) (type solid)) (layer "F.Fab") (tstamp bc559e20-ada7-4f18-8027-1085794fc68c))
  (fp_line (start 6.325 -8.61) (end 6.325 -2.475)
    (stroke (width 0.1) (type solid)) (layer "F.Fab") (tstamp 9791c0c2-2c5c-4ea4-bd57-14238f6021b8))
  (fp_line (start 6.325 -2.475) (end 3.635 -2.475)
    (stroke (width 0.1) (type solid)) (layer "F.Fab") (tstamp e165cc62-1f65-4e50-bf4d-c1b33f13f4d4))
  (pad "1" smd rect (at -3 -2.315) (size 1.27 2.92) (layers "F.Cu" "F.Paste" "F.Mask") (tstamp bfe87653-84e5-42d7-832e-5c7655ab18da))
  (pad "2" smd rect (at 0 -2.315) (size 1.27 2.92) (layers "F.Cu" "F.Paste" "F.Mask") (tstamp 1cb9804e-5712-4012-9a98-51e019c08a80))
  (pad "3" smd rect (at 3 -2.315) (size 1.27 2.92) (layers "F.Cu" "F.Paste" "F.Mask") (tstamp babec876-dd86-4fe8-90d5-989f389f73e3))
  (pad "4" smd rect (at -3 2.315) (size 1.27 2.92) (layers "F.Cu" "F.Paste" "F.Mask") (tstamp 6d470724-373d-4dae-a178-3c7953cd4eba))
  (pad "5" smd rect (at 0 2.315) (size 1.27 2.92) (layers "F.Cu" "F.Paste" "F.Mask") (tstamp b593a026-5f27-4c13-9d3a-4463b56dda1e))
  (pad "6" smd rect (at 3 2.315) (size 1.27 2.92) (layers "F.Cu" "F.Paste" "F.Mask") (tstamp 424b9d9a-a704-44f1-8bd0-7134f0cff2f8))
  (pad "MP" smd rect (at -6.885 -7.785) (size 3.43 1.65) (layers "F.Cu" "F.Paste" "F.Mask") (tstamp f3402b64-f4c4-4fed-ba8a-b525abd0bc35))
  (pad "MP" smd rect (at 6.885 -7.785) (size 3.43 1.65) (layers "F.Cu" "F.Paste" "F.Mask") (tstamp 32378dd3-f7e9-4644-9fe9-235200faf634))
  (model "${PHYSIK3A_3DMODEL_DIR}/Molex_Micro-Fit_3.0_43045-0610_2x03-1MP_P3.00mm_Horizontal.stp"
    (offset (xyz 0 7.4 4))
    (scale (xyz 1 1 1))
    (rotate (xyz -90 0 180))
  )
)
