(footprint "Tab_KiKit" (version 20221018) (generator pcbnew)
  (layer "F.Cu")
  (descr "Placeholder for annotated kikit tabs")
  (attr exclude_from_pos_files exclude_from_bom allow_missing_courtyard)
  (fp_text reference "REF**" (at 0 -0.5 unlocked) (layer "F.SilkS") hide
      (effects (font (size 1 1) (thickness 0.15)))
    (tstamp 369e0590-aec2-4a12-a457-56e72422741b)
  )
  (fp_text value "Tab_KiKit" (at 0 -2 unlocked) (layer "F.Fab")
      (effects (font (size 1 1) (thickness 0.15)))
    (tstamp 5de81d47-777c-4021-a3a9-9d4e9dc04fc7)
  )
  (fp_text user "KIKIT: width: 3mm" (at 2 1) (layer "F.Fab")
      (effects (font (size 0.5 0.5) (thickness 0.08)) (justify left))
    (tstamp 68e473f9-2b20-45fd-9b2a-2a82af7cb3ce)
  )
  (fp_text user "${REFERENCE}" (at 2 0 unlocked) (layer "F.Fab")
      (effects (font (size 1 1) (thickness 0.15)) (justify left))
    (tstamp a2226d13-8762-46ed-b914-e0955bbfa891)
  )
  (fp_poly
    (pts
      (xy 0 0)
      (xy 2 -1)
      (xy 2 1)
    )

    (stroke (width 0.1) (type solid)) (fill solid) (layer "F.Fab") (tstamp a092fa4b-0772-4ba3-956a-cfeae7c6cf8d))
)
