(footprint "TE_Connectivity_MICRO-MATCH_SMD_FTE_0-188275-6_2x03_P1.27mm_Vertical" (version 20221018) (generator pcbnew)
  (layer "F.Cu")
  (descr "Molex TE Connectivity 1.27mm Pitch Micro-MaTch, Female-On-Board SMD, 0-188275-6, 6 Circuits (https://www.te.com/commerce/DocumentDelivery/DDEController?Action=showdoc&DocId=Customer+Drawing%7F188275%7FS4%7Fpdf%7FEnglish%7FENG_CD_188275_S4.pdf%7F2-188275-0), generated with kicad-footprint-generator")
  (tags "connector TE Connectivity MICRO-MATCH SMD FTE vertical")
  (property "Sheetfile" "MiC2-Aux.kicad_sch")
  (property "Sheetname" "")
  (attr smd)
  (fp_text reference "J1" (at -7.25 0) (layer "F.SilkS")
      (effects (font (size 1 1) (thickness 0.15)))
    (tstamp bde7be12-9357-4781-9f0c-bcc1cd128543)
  )
  (fp_text value "MicroMatch" (at 0 1.75) (layer "F.Fab") hide
      (effects (font (size 1 1) (thickness 0.15)))
    (tstamp 04b6d9b4-8847-4011-9c0c-55ca24f98f0b)
  )
  (fp_text user "${REFERENCE}" (at 0 0) (layer "F.Fab")
      (effects (font (size 1 1) (thickness 0.15)))
    (tstamp b2f99460-4240-4e52-9dc8-deda00c12373)
  )
  (fp_line (start -4.86 -2.6) (end -4.185 -2.6)
    (stroke (width 0.12) (type solid)) (layer "F.SilkS") (tstamp d3e5dcd9-bb3f-40ff-898a-8617d13e2c21))
  (fp_line (start -4.86 2.6) (end -4.86 -2.6)
    (stroke (width 0.12) (type solid)) (layer "F.SilkS") (tstamp aece669d-48fa-4247-8449-de7a8c42a905))
  (fp_line (start -4.185 -2.6) (end -4.185 -3.75)
    (stroke (width 0.12) (type solid)) (layer "F.SilkS") (tstamp 2aaad15f-be27-435f-9fda-3d5389b9f889))
  (fp_line (start -2.915 2.6) (end -4.86 2.6)
    (stroke (width 0.12) (type solid)) (layer "F.SilkS") (tstamp af02990c-6e60-40bb-b828-76e831f135ac))
  (fp_line (start 4.185 2.6) (end 4.86 2.6)
    (stroke (width 0.12) (type solid)) (layer "F.SilkS") (tstamp 9308dcfd-96e1-42c6-b49c-dbd31086fe54))
  (fp_line (start 4.21 -1.3) (end 4.86 -1.3)
    (stroke (width 0.12) (type solid)) (layer "F.SilkS") (tstamp d5c7088f-cea5-4951-a889-3d1f254cabf6))
  (fp_line (start 4.21 1.3) (end 4.21 -1.3)
    (stroke (width 0.12) (type solid)) (layer "F.SilkS") (tstamp ae316000-5fcc-4853-ba8b-87d5cf5a51a4))
  (fp_line (start 4.86 -2.6) (end 2.915 -2.6)
    (stroke (width 0.12) (type solid)) (layer "F.SilkS") (tstamp 2ee0aa21-92d6-45a0-b1fa-66d3aed4fd19))
  (fp_line (start 4.86 -1.3) (end 4.86 -2.6)
    (stroke (width 0.12) (type solid)) (layer "F.SilkS") (tstamp df086c21-3134-4401-8c2e-d22b5405a000))
  (fp_line (start 4.86 1.3) (end 4.21 1.3)
    (stroke (width 0.12) (type solid)) (layer "F.SilkS") (tstamp 2cb7cff3-8be8-4da9-9d23-ab28a51e8f1d))
  (fp_line (start 4.86 2.6) (end 4.86 1.3)
    (stroke (width 0.12) (type solid)) (layer "F.SilkS") (tstamp 9c1cc0d2-e136-4cb5-95eb-658f75b168fe))
  (fp_line (start -5.36 -4.25) (end -5.36 4.25)
    (stroke (width 0.05) (type solid)) (layer "F.CrtYd") (tstamp e64472bc-1cd0-436f-87d5-d275556b9c24))
  (fp_line (start -5.36 4.25) (end 5.36 4.25)
    (stroke (width 0.05) (type solid)) (layer "F.CrtYd") (tstamp 11d41d90-fac7-46d1-b0b1-fad09ba051c4))
  (fp_line (start 5.36 -4.25) (end -5.36 -4.25)
    (stroke (width 0.05) (type solid)) (layer "F.CrtYd") (tstamp d26890d0-46ce-431f-a3ca-f5ef539cd46a))
  (fp_line (start 5.36 4.25) (end 5.36 -4.25)
    (stroke (width 0.05) (type solid)) (layer "F.CrtYd") (tstamp e017c6b4-de36-4e70-a39e-bf612bb2cda6))
  (fp_line (start -4.86 -2.6) (end -4.86 2.6)
    (stroke (width 0.1) (type solid)) (layer "F.Fab") (tstamp 84d79e13-fece-496e-a143-2186e84886bb))
  (fp_line (start -4.86 2.6) (end 4.86 2.6)
    (stroke (width 0.1) (type solid)) (layer "F.Fab") (tstamp fab48e58-70a3-49ae-9812-ae1c22e41cdc))
  (fp_line (start -3.675 -2.6) (end -3.175 -1.85)
    (stroke (width 0.1) (type solid)) (layer "F.Fab") (tstamp fd5f3212-5b57-4a84-8c4e-6186e4a9db95))
  (fp_line (start -3.175 -1.85) (end -2.675 -2.6)
    (stroke (width 0.1) (type solid)) (layer "F.Fab") (tstamp 07533633-5d49-4f5a-a927-a4c95c688cc2))
  (fp_line (start 4.2 -1.3) (end 4.2 1.3)
    (stroke (width 0.1) (type default)) (layer "F.Fab") (tstamp 15f03ac6-f2fa-4453-b318-8bd2a370e717))
  (fp_line (start 4.2 1.3) (end 4.85 1.3)
    (stroke (width 0.1) (type default)) (layer "F.Fab") (tstamp 8012316b-c639-4cc4-8310-9d485e292edd))
  (fp_line (start 4.85 -1.3) (end 4.2 -1.3)
    (stroke (width 0.1) (type default)) (layer "F.Fab") (tstamp d8acc16b-7dd7-46d5-aa73-00e6c5716d19))
  (fp_line (start 4.86 -2.6) (end -4.86 -2.6)
    (stroke (width 0.1) (type solid)) (layer "F.Fab") (tstamp 4348c558-4177-4628-81e2-7fdd92b7faa1))
  (fp_line (start 4.86 2.6) (end 4.86 -2.6)
    (stroke (width 0.1) (type solid)) (layer "F.Fab") (tstamp 0e566bb4-c196-4fe8-80df-ca1570c7f0d9))
  (pad "1" smd rect (at -3.175 -2.25) (size 1.5 3) (layers "F.Cu" "F.Paste" "F.Mask") (tstamp 8ef57b73-77d2-4e7b-8b44-e1cc296c5e0c))
  (pad "2" smd rect (at -1.905 2.25) (size 1.5 3) (layers "F.Cu" "F.Paste" "F.Mask") (tstamp 55adf3ee-d2ff-4023-bef3-5a28f9013de5))
  (pad "3" smd rect (at -0.635 -2.25) (size 1.5 3) (layers "F.Cu" "F.Paste" "F.Mask") (tstamp ac4f1f8d-1133-4f94-857e-f56bc5537fef))
  (pad "4" smd rect (at 0.635 2.25) (size 1.5 3) (layers "F.Cu" "F.Paste" "F.Mask") (tstamp 8a870715-54c8-4185-a5c4-434c15fa476e))
  (pad "5" smd rect (at 1.905 -2.25) (size 1.5 3) (layers "F.Cu" "F.Paste" "F.Mask") (tstamp fab3e4fb-5b03-4cff-8991-23e351b6389a))
  (pad "6" smd rect (at 3.175 2.25) (size 1.5 3) (layers "F.Cu" "F.Paste" "F.Mask") (tstamp 29ce2e9d-8723-43a1-aefe-93b29ef974bb))
  (model "${PHYSIK3A_3DMODEL_DIR}/TE_Connectivity_MICRO-MATCH_SMD_FTE_0-188275-6_2x03_P1.27mm_Vertical.stp"
    (offset (xyz 0 3 5.3))
    (scale (xyz 1 1 1))
    (rotate (xyz 0 0 0))
  )
)
