(footprint "Terminal_BananaJack_21x11.5mm" (version 20211014) (generator pcbnew)
  (layer "F.Cu")
  (tedit 0)
  (descr "4mm BananaJack, THT, unknown manufacturer")
  (tags "THT Jack Banana")
  (attr through_hole)
  (fp_text reference "REF**" (at -7.5 -0.5 unlocked) (layer "F.SilkS")
    (effects (font (size 1 1) (thickness 0.15)))
    (tstamp 0a52099a-10c7-4b7d-9bca-e3f4b94740c5)
  )
  (fp_text value "BananaJack_21x11.5mm" (at 0 1 unlocked) (layer "F.Fab")
    (effects (font (size 1 1) (thickness 0.15)))
    (tstamp f056da80-4fad-43d8-a681-e8afc297d4de)
  )
  (fp_text user "${REFERENCE}" (at -7.5 2.5 unlocked) (layer "F.Fab")
    (effects (font (size 1 1) (thickness 0.15)))
    (tstamp a57c06b0-e8de-482f-9371-4305ae617ab6)
  )
  (fp_rect (start -10.75 -6) (end 10.75 6) (layer "F.SilkS") (width 0.12) (fill none) (tstamp 6a34e165-ecff-493a-8c09-ff618b6706c0))
  (fp_rect (start 13.25 -6.25) (end -11 6.25) (layer "F.CrtYd") (width 0.12) (fill none) (tstamp acb5489d-7f48-415d-95ac-a67b3110aa0e))
  (fp_line (start 13 -5.75) (end 13 5.75) (layer "F.Fab") (width 0.1) (tstamp 2cac2795-38bf-431d-b075-c4da0d152d34))
  (fp_line (start 13 5.75) (end 10.5 5.75) (layer "F.Fab") (width 0.1) (tstamp 380cf82f-063f-42a0-9a8e-ac2c64bc13c4))
  (fp_line (start 10.5 -5.75) (end 13 -5.75) (layer "F.Fab") (width 0.1) (tstamp 49550701-2fc4-4666-bb52-906d95cae068))
  (fp_rect (start -10.5 5.75) (end 10.5 -5.75) (layer "F.Fab") (width 0.1) (fill none) (tstamp 2b501b9e-53d2-49f0-a457-9439856ad92d))
  (pad "1" thru_hole circle (at -7.5 0) (size 3 3) (drill 1.5) (layers *.Cu *.Mask) (tstamp 1dd65e06-1b19-42b2-9e48-aa593ac50db3))
  (pad "1" thru_hole circle (at 7.5 0) (size 3 3) (drill 1.5) (layers *.Cu *.Mask) (tstamp a49a4d82-48bd-42b8-95c9-1c983664fc79))
)
