(footprint "Terminal_WE_7460719" (version 20211014) (generator pcbnew)
  (layer "F.Cu")
  (tedit 0)
  (descr "Redcube Press-Fit M8 external thread")
  (tags "Redcube M8")
  (attr through_hole)
  (fp_text reference "REF**" (at 0 -0.5 unlocked) (layer "F.SilkS")
    (effects (font (size 1 1) (thickness 0.15)))
    (tstamp a4977b1b-bb89-4e17-97dc-d3951cd5bc7b)
  )
  (fp_text value "WE_7460719" (at 0 1 unlocked) (layer "F.Fab")
    (effects (font (size 1 1) (thickness 0.15)))
    (tstamp 5b8555c1-637c-4f2d-8aa7-a5891ef8819f)
  )
  (fp_text user "${REFERENCE}" (at 0 2.5 unlocked) (layer "F.Fab")
    (effects (font (size 1 1) (thickness 0.15)))
    (tstamp 471c9a35-b8d2-40eb-9587-d7f4b6b0fe17)
  )
  (fp_rect (start -7 -7) (end 7 7) (layer "Margin") (width 0.05) (fill none) (tstamp f74cf720-a367-432a-956c-998e2f22d811))
  (fp_rect (start -6.5 -6.5) (end 6.5 6.5) (layer "F.Fab") (width 0.1) (fill none) (tstamp 255d34a5-5a47-4498-9a55-da51a8a931dd))
  (fp_circle (center 0 0) (end 0 -4) (layer "F.Fab") (width 0.1) (fill none) (tstamp de13e0f2-e58c-4cc2-84c5-b6bd1aedd8ac))
  (pad "1" thru_hole circle (at -5.08 -5.08) (size 2 2) (drill 1.6) (layers *.Cu *.Mask) (tstamp 004f1cac-5431-476d-8d12-f0d7e1d2971c))
  (pad "1" thru_hole circle (at -5.08 5.08) (size 2 2) (drill 1.6) (layers *.Cu *.Mask) (tstamp 13c15b23-49c6-473a-a640-272df9fa9b60))
  (pad "1" thru_hole circle (at -5.08 -2.54) (size 2 2) (drill 1.6) (layers *.Cu *.Mask) (tstamp 23d75056-8ad4-462d-aa30-6d8d564b8e62))
  (pad "1" thru_hole circle (at 2.54 2.54) (size 2 2) (drill 1.6) (layers *.Cu *.Mask) (tstamp 2c471abf-4676-4834-a661-17c81fec1d5b))
  (pad "1" thru_hole circle (at -2.54 2.54) (size 2 2) (drill 1.6) (layers *.Cu *.Mask) (tstamp 2ceb269c-002a-4d1d-8fcc-3039e49371b1))
  (pad "1" thru_hole circle (at 2.54 5.08) (size 2 2) (drill 1.6) (layers *.Cu *.Mask) (tstamp 4155505f-3687-467b-8149-9afc3d422f5e))
  (pad "1" thru_hole circle (at -2.54 -2.54) (size 2 2) (drill 1.6) (layers *.Cu *.Mask) (tstamp 4cb73d54-77e7-453b-a17a-2f3ae460d5f4))
  (pad "1" thru_hole circle (at -2.54 -5.08) (size 2 2) (drill 1.6) (layers *.Cu *.Mask) (tstamp 55366e14-cec9-493d-901d-448b04d2f286))
  (pad "1" thru_hole circle (at 0 -5.08) (size 2 2) (drill 1.6) (layers *.Cu *.Mask) (tstamp 5aeb1e78-7ed8-446f-a1fa-e72019642e8e))
  (pad "1" thru_hole circle (at 0 -2.54) (size 2 2) (drill 1.6) (layers *.Cu *.Mask) (tstamp 66a63530-21d0-4c46-9871-3b13e24c24f3))
  (pad "1" thru_hole circle (at 5.08 0) (size 2 2) (drill 1.6) (layers *.Cu *.Mask) (tstamp 79415c1b-cc22-4b7c-bc05-fd9d3e052059))
  (pad "1" thru_hole circle (at 5.08 5.08) (size 2 2) (drill 1.6) (layers *.Cu *.Mask) (tstamp 7fd42837-f5c5-4745-aa29-c722e6e8c542))
  (pad "1" thru_hole circle (at 2.54 -2.54) (size 2 2) (drill 1.6) (layers *.Cu *.Mask) (tstamp 8740e3f7-ac5e-48a5-a1b9-2b3a8f9906e3))
  (pad "1" thru_hole circle (at 5.08 -2.54) (size 2 2) (drill 1.6) (layers *.Cu *.Mask) (tstamp 897c9415-bcbc-426b-a1e4-847438e49709))
  (pad "1" thru_hole circle (at 2.54 -5.08) (size 2 2) (drill 1.6) (layers *.Cu *.Mask) (tstamp 8bcf2b99-1928-47d5-9785-f90fe779323f))
  (pad "1" thru_hole circle (at 0 0) (size 2 2) (drill 1.6) (layers *.Cu *.Mask) (tstamp 96752d91-b1d8-4e14-870e-215a5a87ee0e))
  (pad "1" thru_hole circle (at -2.54 0) (size 2 2) (drill 1.6) (layers *.Cu *.Mask) (tstamp a3320d5c-237c-4cca-a6a9-4a2f9b14c9cd))
  (pad "1" thru_hole circle (at 5.08 -5.08) (size 2 2) (drill 1.6) (layers *.Cu *.Mask) (tstamp bb54ebf3-39eb-41d2-9953-cc5d1a5d74ce))
  (pad "1" thru_hole circle (at -5.08 0) (size 2 2) (drill 1.6) (layers *.Cu *.Mask) (tstamp cc6a3e5e-2422-44b6-beae-ae2c7fe3db22))
  (pad "1" thru_hole circle (at 0 2.54) (size 2 2) (drill 1.6) (layers *.Cu *.Mask) (tstamp cd37445d-7e69-43c7-a246-3c19a9e80192))
  (pad "1" thru_hole circle (at 2.54 0) (size 2 2) (drill 1.6) (layers *.Cu *.Mask) (tstamp d3a2aff2-5f28-4465-9188-48602e8e75cc))
  (pad "1" thru_hole circle (at -2.54 5.08) (size 2 2) (drill 1.6) (layers *.Cu *.Mask) (tstamp d80c6f3c-2d1f-40d3-bf71-8046ae8efa09))
  (pad "1" thru_hole circle (at -5.08 2.54) (size 2 2) (drill 1.6) (layers *.Cu *.Mask) (tstamp df8da694-da12-43e9-b050-9c54dbe4c006))
  (pad "1" thru_hole circle (at 5.08 2.54) (size 2 2) (drill 1.6) (layers *.Cu *.Mask) (tstamp eb1f5f67-1647-4e1c-ab18-120e742c63a6))
  (pad "1" thru_hole circle (at 0 5.08) (size 2 2) (drill 1.6) (layers *.Cu *.Mask) (tstamp ef0a2071-6555-49e0-bc78-da38debe66e0))
  (model "${PHYSIK3A_3DMODEL_DIR}/WE_7460719.stp"
    (offset (xyz 0 0 0))
    (scale (xyz 1 1 1))
    (rotate (xyz 0 0 90))
  )
)
