(footprint "Testpoint_Keystone_5019" (version 20221018) (generator pcbnew)
  (layer "F.Cu")
  (descr " Miniature Surface Mount Test Point (https://www.keyelco.com/product-pdf.cfm?p=1357)")
  (tags "Testpoint SMD")
  (attr smd)
  (fp_text reference "REF**" (at 0 2 unlocked) (layer "F.SilkS")
      (effects (font (size 1 1) (thickness 0.15)))
    (tstamp ffee6b22-9cab-4332-97fc-ab65247a3d87)
  )
  (fp_text value "Testpoint_Keystone_5019" (at 0 -2 unlocked) (layer "F.Fab")
      (effects (font (size 1 1) (thickness 0.15)))
    (tstamp 102258a0-36c9-4874-b89e-bbd6edf121db)
  )
  (fp_text user "${REFERENCE}" (at 0 0 unlocked) (layer "F.Fab")
      (effects (font (size 0.5 0.5) (thickness 0.1) bold))
    (tstamp 0eeca4d7-faf1-4cff-a934-9b9add8b3963)
  )
  (fp_rect (start -2.1 -1.3) (end 2.1 1.3)
    (stroke (width 0.12) (type default)) (fill none) (layer "F.SilkS") (tstamp 0dfb38c5-5539-431e-a192-3a1375376722))
  (fp_rect (start 2.4 -1.6) (end -2.4 1.6)
    (stroke (width 0.05) (type default)) (fill none) (layer "F.CrtYd") (tstamp d6f2b7ba-8238-4aaf-ba52-65db27820a81))
  (fp_line (start -1.905 -0.51) (end 1.905 -0.51)
    (stroke (width 0.1) (type default)) (layer "F.Fab") (tstamp 5688da50-2d19-4796-a577-f3d8736050ef))
  (fp_line (start -1.905 0.51) (end 1.905 0.51)
    (stroke (width 0.1) (type default)) (layer "F.Fab") (tstamp f226208d-38b1-4ffd-b744-df599788ab27))
  (fp_rect (start -1.905 1.015) (end 1.905 -1.015)
    (stroke (width 0.1) (type default)) (fill none) (layer "F.Fab") (tstamp 3da304c1-7873-4444-a01d-37a2ca298c86))
  (pad "1" smd roundrect (at 0 0) (size 3.8 2.2) (layers "F.Cu" "F.Paste" "F.Mask") (roundrect_rratio 0.1)
    (solder_paste_margin -0.2) (thermal_bridge_angle 45) (tstamp 5f8e5d5b-e9bd-4416-a249-c0587da98d9d))
  (model "${PHYSIK3A_3DMODEL_DIR}/Testpoint_Keystone_5019.stp"
    (offset (xyz 0 0 1.15))
    (scale (xyz 1 1 1))
    (rotate (xyz -90 0 0))
  )
)
