(footprint "WSON-12-1EP_3x3mm_P0.5mm_EP1.5x2.5mm_ThermalVias" (version 20221018) (generator pcbnew)
  (layer "F.Cu")
  (descr "WSON, 12 Pin (https://www.ti.com/lit/ds/symlink/tps63710.pdf#page=33), generated with kicad-footprint-generator ipc_noLead_generator.py")
  (tags "WSON NoLead")
  (attr smd)
  (fp_text reference "REF**" (at 0 -2.45) (layer "F.SilkS")
      (effects (font (size 1 1) (thickness 0.15)))
    (tstamp 0b4add59-1eab-4fa3-9c57-d247e14cbcaf)
  )
  (fp_text value "WSON-12-1EP_3x3mm_P0.5mm_EP1.5x2.5mm_ThermalVias" (at 0 2.45) (layer "F.Fab")
      (effects (font (size 1 1) (thickness 0.15)))
    (tstamp f3ec9716-17f2-4e9a-b9ed-6cd65afa57e7)
  )
  (fp_text user "${REFERENCE}" (at 0 0) (layer "F.Fab")
      (effects (font (size 0.75 0.75) (thickness 0.11)))
    (tstamp 85bf609b-182a-463c-ab46-c821fbb62151)
  )
  (fp_line (start -1.5 1.61) (end 1.5 1.61)
    (stroke (width 0.12) (type solid)) (layer "F.SilkS") (tstamp 82f81c5b-679f-4795-8887-878e236bd971))
  (fp_line (start 0 -1.61) (end 1.5 -1.61)
    (stroke (width 0.12) (type solid)) (layer "F.SilkS") (tstamp 20f23810-d398-475d-8c46-cc1e8476ea84))
  (fp_line (start -2.13 -1.75) (end -2.13 1.75)
    (stroke (width 0.05) (type solid)) (layer "F.CrtYd") (tstamp 0ceeb1d3-326f-4813-a466-d351abc94f3b))
  (fp_line (start -2.13 1.75) (end 2.13 1.75)
    (stroke (width 0.05) (type solid)) (layer "F.CrtYd") (tstamp 9a7eebda-1d14-4cbf-abf6-83da3664c76b))
  (fp_line (start 2.13 -1.75) (end -2.13 -1.75)
    (stroke (width 0.05) (type solid)) (layer "F.CrtYd") (tstamp 3c9f2dc7-6a23-42d5-aebc-2f0a9f048cb6))
  (fp_line (start 2.13 1.75) (end 2.13 -1.75)
    (stroke (width 0.05) (type solid)) (layer "F.CrtYd") (tstamp a977b910-6698-4df5-a099-2ea28bbc2075))
  (fp_line (start -1.5 -0.75) (end -0.75 -1.5)
    (stroke (width 0.1) (type solid)) (layer "F.Fab") (tstamp 5c193828-a6f6-4483-9185-26efc8cf10e2))
  (fp_line (start -1.5 1.5) (end -1.5 -0.75)
    (stroke (width 0.1) (type solid)) (layer "F.Fab") (tstamp 464ba321-22ee-42f7-8124-4e4ac5f93929))
  (fp_line (start -0.75 -1.5) (end 1.5 -1.5)
    (stroke (width 0.1) (type solid)) (layer "F.Fab") (tstamp eaeaf50a-6012-45b6-b5ba-b74ac5d4d0e7))
  (fp_line (start 1.5 -1.5) (end 1.5 1.5)
    (stroke (width 0.1) (type solid)) (layer "F.Fab") (tstamp 26985581-6ad5-461b-9770-fb77ee02ce75))
  (fp_line (start 1.5 1.5) (end -1.5 1.5)
    (stroke (width 0.1) (type solid)) (layer "F.Fab") (tstamp cc3c814a-d84e-48a2-b73d-9fdddd99428a))
  (pad "" smd roundrect (at -0.375 -0.625) (size 0.6 1.01) (layers "F.Paste") (roundrect_rratio 0.25) (tstamp d5bf6564-f553-434d-b91f-793bcba22001))
  (pad "" smd roundrect (at -0.375 0.625) (size 0.6 1.01) (layers "F.Paste") (roundrect_rratio 0.25) (tstamp 8e7145a5-62c4-4689-8a49-a1cfcc53ffac))
  (pad "" smd roundrect (at 0.375 -0.625) (size 0.6 1.01) (layers "F.Paste") (roundrect_rratio 0.25) (tstamp 1ffbc83b-f5e6-4b89-85b4-1ce5ad5b26f3))
  (pad "" smd roundrect (at 0.375 0.625) (size 0.6 1.01) (layers "F.Paste") (roundrect_rratio 0.25) (tstamp 36d06314-f9ab-478a-a213-1ebd65829568))
  (pad "1" smd roundrect (at -1.4375 -1.25) (size 0.875 0.25) (layers "F.Cu" "F.Paste" "F.Mask") (roundrect_rratio 0.25) (tstamp 3045a5c4-f741-4d7a-98c8-d1554ec4b742))
  (pad "2" smd roundrect (at -1.4375 -0.75) (size 0.875 0.25) (layers "F.Cu" "F.Paste" "F.Mask") (roundrect_rratio 0.25) (tstamp 743817ad-5c40-4f58-9d96-3ced70566a83))
  (pad "3" smd roundrect (at -1.4375 -0.25) (size 0.875 0.25) (layers "F.Cu" "F.Paste" "F.Mask") (roundrect_rratio 0.25) (tstamp 64990f00-43ae-4c29-993e-473f18114c6d))
  (pad "4" smd roundrect (at -1.4375 0.25) (size 0.875 0.25) (layers "F.Cu" "F.Paste" "F.Mask") (roundrect_rratio 0.25) (tstamp e20e7182-b125-4eb5-96cf-c022b6e0bab3))
  (pad "5" smd roundrect (at -1.4375 0.75) (size 0.875 0.25) (layers "F.Cu" "F.Paste" "F.Mask") (roundrect_rratio 0.25) (tstamp c485e517-0860-43bd-9ec9-1866fc79a448))
  (pad "6" smd roundrect (at -1.4375 1.25) (size 0.875 0.25) (layers "F.Cu" "F.Paste" "F.Mask") (roundrect_rratio 0.25) (tstamp f97ca31c-4944-49e4-aee3-ccbc3e64d4dc))
  (pad "7" smd roundrect (at 1.4375 1.25) (size 0.875 0.25) (layers "F.Cu" "F.Paste" "F.Mask") (roundrect_rratio 0.25) (tstamp f199dd78-48c7-476e-b60b-e055cbc79625))
  (pad "8" smd roundrect (at 1.4375 0.75) (size 0.875 0.25) (layers "F.Cu" "F.Paste" "F.Mask") (roundrect_rratio 0.25) (tstamp fe8d404d-f514-405c-a6f1-571f01fc9cd5))
  (pad "9" smd roundrect (at 1.4375 0.25) (size 0.875 0.25) (layers "F.Cu" "F.Paste" "F.Mask") (roundrect_rratio 0.25) (tstamp afb096c8-9948-421b-9792-98fd9a811c2b))
  (pad "10" smd roundrect (at 1.4375 -0.25) (size 0.875 0.25) (layers "F.Cu" "F.Paste" "F.Mask") (roundrect_rratio 0.25) (tstamp e3367453-f5ad-4687-94fe-e776df3c0d54))
  (pad "11" smd roundrect (at 1.4375 -0.75) (size 0.875 0.25) (layers "F.Cu" "F.Paste" "F.Mask") (roundrect_rratio 0.25) (tstamp 7ba47255-24b2-4a8c-8890-a8be51239da5))
  (pad "12" smd roundrect (at 1.4375 -1.25) (size 0.875 0.25) (layers "F.Cu" "F.Paste" "F.Mask") (roundrect_rratio 0.25) (tstamp ef87cfdf-45cb-4742-b978-372bccb5ce09))
  (pad "13" thru_hole circle (at 0 -1) (size 0.5 0.5) (drill 0.2) (layers "*.Cu") (tstamp a76b3ef3-8059-4883-907d-8e4aed32ef27))
  (pad "13" thru_hole circle (at 0 0) (size 0.5 0.5) (drill 0.2) (layers "*.Cu") (tstamp 870fb3bf-042f-4a16-8735-3e07f6f3b305))
  (pad "13" smd rect (at 0 0) (size 0.5 2.5) (layers "B.Cu") (tstamp 4d7d69bf-8ad2-40d8-8d34-c71f2bb2a9f0))
  (pad "13" smd rect (at 0 0) (size 1.5 2.5) (layers "F.Cu" "F.Mask") (tstamp 94a26103-ca13-4f48-b94d-24ed3a1e8d42))
  (pad "13" thru_hole circle (at 0 1) (size 0.5 0.5) (drill 0.2) (layers "*.Cu") (tstamp c628590b-2a9b-4df0-980e-60de0cb081c6))
  (model "${KICAD7_3DMODEL_DIR}/Package_SON.3dshapes/WSON-12-1EP_3x3mm_P0.5mm_EP1.5x2.5mm.wrl"
    (offset (xyz 0 0 0))
    (scale (xyz 1 1 1))
    (rotate (xyz 0 0 0))
  )
)
